<svg id="Ebene_1" data-name="Ebene 1" xmlns="http://www.w3.org/2000/svg" viewBox="0 0 499.202 246.9336">
  <g>
    <g id="type">
      <path id="type_CompoundPathItem_" data-name="type &lt;CompoundPathItem&gt;" d="M22.4971,192.6163a8.492,8.492,0,0,1-1.6543.747,9.1988,9.1988,0,0,1-1.5254.3565,8.6143,8.6143,0,0,1-1.1025.0966,4,4,0,0,1-2.4961-.94,5.9792,5.9792,0,0,1-1.8477-3.08,13.2358,13.2358,0,0,1-2.9853,3.209,4.7625,4.7625,0,0,1-2.7237.9414,4.7,4.7,0,0,1-2.1728-.5517,6.3871,6.3871,0,0,1-1.9141-1.5235,8.7227,8.7227,0,0,1-1.3935-2.2373,6.6575,6.6575,0,0,1-.5518-2.6924q0-1.0371-.0645-2.4326T2,181.4288q0-1.6875.13-3.4385a17.6557,17.6557,0,0,1,.6484-3.5664,6.6642,6.6642,0,0,1,.8438-1.8828,11.0748,11.0748,0,0,1,1.33-1.6856,11.4827,11.4827,0,0,1,1.4912-1.3281,8.9871,8.9871,0,0,1,1.2656-.8125,5.94,5.94,0,0,1,1.751-.583q1.0356-.1949,1.9785-.293c.625-.0644,1.1777-.1172,1.6533-.1611.4756-.042.7559-.0645.8438-.0645v-8.9512a4.9072,4.9072,0,0,0-.8116-3.0156,2.9315,2.9315,0,0,0-2.498-1.0713,5.8344,5.8344,0,0,0-2.5283.584,9.7567,9.7567,0,0,0-1.8809,1.1026q-.6489.52-.7139.583l-1.8173-2.9825q1.56-1.1029,2.6923-1.7519a25.4742,25.4742,0,0,1,2.4014-1.2,5.8434,5.8434,0,0,1,2.3008-.5508,9.11,9.11,0,0,1,2.3682.3242,8.348,8.348,0,0,1,3.9892,2.4,5.9045,5.9045,0,0,1,1.167,1.8155,8.2,8.2,0,0,1,.39,1.59,17.0607,17.0607,0,0,1,.1289,2.3672V187.72a3.7868,3.7868,0,0,0,.26,1.6543.8374.8374,0,0,0,.7783.4873,1.43,1.43,0,0,0,.8116-.39c.3242-.2607.7031-.5625,1.1357-.9092l1.8809,2.79A5.5636,5.5636,0,0,1,22.4971,192.6163Zm-8.5615-21.3077a6.2082,6.2082,0,0,0-3.958,1.1368,6.5133,6.5133,0,0,0-2.0743,2.8535,12.8677,12.8677,0,0,0-.7783,3.7627,27.2846,27.2846,0,0,0,0,3.7939c.042.7363.086,1.4053.13,2.0108.042.6064.0644,1.081.0644,1.4267a4.1334,4.1334,0,0,0,.7784,2.4971,2.44,2.44,0,0,0,2.0752,1.0713,2.8868,2.8868,0,0,0,2.0429-1.04,8.965,8.965,0,0,0,1.72-2.6582Z" style="fill: #4e4e4e"/>
      <path id="type_CompoundPathItem_2" data-name="type &lt;CompoundPathItem&gt;" d="M41.9355,193.168l-3.8907-10.2471-2.7256-7.1347a36.6722,36.6722,0,0,0-1.7509-3.5694V193.168H28.5107V150.3594h4.9931v21.5332l6.8106-21.5332h5.125l-7.3946,20.3662,9.0157,22.378Z" style="fill: #4e4e4e"/>
      <path id="type_CompoundPathItem_3" data-name="type &lt;CompoundPathItem&gt;" d="M70.997,182.7266a20.6852,20.6852,0,0,1-.1611,2.2354,12.0844,12.0844,0,0,1-.3243,1.623,13.3269,13.3269,0,0,1-.52,1.459,9.36,9.36,0,0,1-3.373,4.1514,8.7476,8.7476,0,0,1-10.0538-.0645,8.8943,8.8943,0,0,1-3.3066-4.0869,11.3353,11.3353,0,0,1-.5186-1.5235,15.0108,15.0108,0,0,1-.3261-1.6542,19.2159,19.2159,0,0,1-.1612-2.2051q-.0336-1.298-.0332-3.2442V150.3594h4.9952v28.7979q0,2.9195.163,4.8662a10.4675,10.4675,0,0,0,.6485,3.1123,3.033,3.033,0,0,0,1.3613,1.6211,4.8491,4.8491,0,0,0,2.2383.4541,4.3869,4.3869,0,0,0,2.2051-.4854,3.2785,3.2785,0,0,0,1.33-1.6211,10.209,10.209,0,0,0,.6485-3.081q.1611-1.9454.1611-4.8662V150.3594h5.06V179.417Q71.03,181.4284,70.997,182.7266Z" style="fill: #4e4e4e"/>
      <path id="type_CompoundPathItem_4" data-name="type &lt;CompoundPathItem&gt;" d="M83.872,154.834v13.6221h7.46v4.6045H83.9374V193.168H78.8788V150.3594H91.7851v4.4746Z" style="fill: #4e4e4e"/>
      <path id="type_CompoundPathItem_5" data-name="type &lt;CompoundPathItem&gt;" d="M103.9521,154.834v13.6221h7.458v4.6045h-7.3946V193.168H98.9579V150.3594h12.9063v4.4746Z" style="fill: #4e4e4e"/>
      <path id="type_CompoundPathItem_6" data-name="type &lt;CompoundPathItem&gt;" d="M138.3367,180.8125a26.3967,26.3967,0,0,1-2.3672,6.94,13.0429,13.0429,0,0,1-3.6,4.4424,7.412,7.412,0,0,1-4.54,1.5566,7.5031,7.5031,0,0,1-4.6065-1.5566,13.1126,13.1126,0,0,1-3.6-4.4112,25.8156,25.8156,0,0,1-2.3672-6.94,45.0049,45.0049,0,0,1-.8437-9.0811,44.5321,44.5321,0,0,1,.8437-9.0468,26.4,26.4,0,0,1,2.3672-6.9405,13.0481,13.0481,0,0,1,3.6-4.4433,7.5022,7.5022,0,0,1,4.6065-1.5557,7.4111,7.4111,0,0,1,4.54,1.5557,13.0458,13.0458,0,0,1,3.6,4.4433,26.3967,26.3967,0,0,1,2.3672,6.9405,48.9356,48.9356,0,0,1,0,18.0966Zm-4.4111-9.05a41.6041,41.6041,0,0,0-1.5557-12.7109q-1.5572-4.6728-4.54-4.6709a3.5838,3.5838,0,0,0-2.6924,1.2,9.5137,9.5137,0,0,0-1.9141,3.4375,26.5015,26.5015,0,0,0-1.166,5.4805,61.12,61.12,0,0,0-.39,7.2636q0,8.111,1.5556,12.7461,1.5572,4.6392,4.6065,4.6377,2.981,0,4.5078-4.6689a42.4616,42.4616,0,0,0,1.5225-12.7149Z" style="fill: #4e4e4e"/>
      <path id="type_CompoundPathItem_7" data-name="type &lt;CompoundPathItem&gt;" d="M173.3434,193.752l-1.751-4.0859a14.8726,14.8726,0,0,1-3.5674,3.1132,6.9194,6.9194,0,0,1-3.5029.9727,7.1473,7.1473,0,0,1-3.6319-.9727,10.356,10.356,0,0,1-2.9824-2.6269,12.6711,12.6711,0,0,1-2.0439-3.9248,15.4845,15.4845,0,0,1-.7461-4.8633,15.7666,15.7666,0,0,1,2.92-9.4063c.2588-.39.4961-.7226.7129-1.0048.2158-.28.4541-.5625.7129-.8428.2607-.2822.5615-.5947.9082-.9414q.5185-.5171,1.2969-1.2315a44.2937,44.2937,0,0,1-1.9131-5.0918,13.9932,13.9932,0,0,1-.6162-3.9238,9.8318,9.8318,0,0,1,.6162-3.4707,9.2674,9.2674,0,0,1,1.6875-2.8867,8.3455,8.3455,0,0,1,2.4306-1.9453,6.2122,6.2122,0,0,1,2.92-.7129,7.0854,7.0854,0,0,1,2.8857.584,6.9512,6.9512,0,0,1,2.3018,1.62,7.5388,7.5388,0,0,1,1.5253,2.4648,8.3951,8.3951,0,0,1,.5518,3.05,10.8273,10.8273,0,0,1-1.4932,5.4161,23.6031,23.6031,0,0,1-4.9287,5.6738l4.3448,10.3779h.5839q.5215-2.14.8448-3.8594.3237-1.7167.5185-3.3408h4.3448a44.3168,44.3168,0,0,1-1.2315,6.585,36.2708,36.2708,0,0,1-2.335,6.4531l4.0206,8.8213Zm-9.5342-21.47q-1.04,1.3636-1.7188,2.4326a12.3784,12.3784,0,0,0-1.0693,2.043,9.3209,9.3209,0,0,0-.5527,1.9462,13.2205,13.2205,0,0,0-.1621,2.14,14.1385,14.1385,0,0,0,.3251,3.081,8.8976,8.8976,0,0,0,.9415,2.5313,5.1775,5.1775,0,0,0,1.49,1.6855,3.254,3.254,0,0,0,1.9131.6153,3.7891,3.7891,0,0,0,2.4013-.81,9.9876,9.9876,0,0,0,2.2051-2.8213Zm6.0322-14.6573A4.6456,4.6456,0,0,0,169.03,154.9a2.461,2.461,0,0,0-2.1065-1.167,2.7366,2.7366,0,0,0-2.3681,1.2656,5.1592,5.1592,0,0,0-.876,3.0156,15.8412,15.8412,0,0,0,2.0107,6.7442q1.232-1.2306,2.043-2.1709a12.0505,12.0505,0,0,0,1.2656-1.72,5.2541,5.2541,0,0,0,.6172-1.5566,8.3839,8.3839,0,0,0,.16-1.6856Z" style="fill: #4e4e4e"/>
      <path id="type_CompoundPathItem_8" data-name="type &lt;CompoundPathItem&gt;" d="M210.6918,193.168a12.1165,12.1165,0,0,1-3.7949.584,11.0659,11.0659,0,0,1-5.6748-1.4912,12.8137,12.8137,0,0,1-4.3457-4.2822,22.8564,22.8564,0,0,1-2.7891-6.7461,36.0777,36.0777,0,0,1-1.0059-8.8858,43.5159,43.5159,0,0,1,.94-9.501,23.9783,23.9783,0,0,1,2.6924-7.1035,12.8635,12.8635,0,0,1,4.2148-4.4433,10.4073,10.4073,0,0,1,5.5791-1.5225,10.0059,10.0059,0,0,1,3.6.6807,24.854,24.854,0,0,1,4.2481,2.2373l-1.8145,3.372c-.6074-.3886-1.125-.7128-1.5576-.9726a7.5185,7.5185,0,0,0-1.2647-.6152,6.3854,6.3854,0,0,0-1.2968-.3243,11.4674,11.4674,0,0,0-1.59-.0976,6.2548,6.2548,0,0,0-3.6318,1.07,7.7776,7.7776,0,0,0-2.53,3.0166,18.24,18.24,0,0,0-1.167,2.7236,18.4982,18.4982,0,0,0-.7138,3.0166q-.2594,1.6539-.39,3.7608t-.13,4.832q0,8.1738,2.2051,12.4209a7.1237,7.1237,0,0,0,6.6826,4.249c.3887,0,.7334-.0088,1.0361-.0322.3018-.0215.7354-.0752,1.2969-.1621v-13.88h-5.8369v-4.541h10.832v20.7558A16.6164,16.6164,0,0,1,210.6918,193.168Z" style="fill: #4e4e4e"/>
      <path id="type_CompoundPathItem_9" data-name="type &lt;CompoundPathItem&gt;" d="M220.5541,193.168V150.3594h5.06v42.7442Z" style="fill: #4e4e4e"/>
      <path id="type_CompoundPathItem_10" data-name="type &lt;CompoundPathItem&gt;" d="M232.594,193.168V150.3594h4.9932V188.627h10.7022v4.4766Z" style="fill: #4e4e4e"/>
      <path id="type_CompoundPathItem_11" data-name="type &lt;CompoundPathItem&gt;" d="M270.5716,187.72a11.0354,11.0354,0,0,1-5.2539,4.2812,16.9275,16.9275,0,0,1-3.0479.875,22.112,22.112,0,0,1-3.957.292h-4.4092V150.3594h5.3174a16.0694,16.0694,0,0,1,5.2549.7139,9.9118,9.9118,0,0,1,3.6943,2.3994,10.1379,10.1379,0,0,1,3.18,7.3945q0,5.6412-5.9,9.34,6.94,3.2432,6.9385,10.6367A12.5178,12.5178,0,0,1,270.5716,187.72Zm-4.2168-26.2041A6.1539,6.1539,0,0,0,259.74,154.9h-.8408v13.9462h.8408a6.11,6.11,0,0,0,4.8321-1.9462,7.8493,7.8493,0,0,0,1.7187-5.3838Zm-1.1338,13.4267a6.8,6.8,0,0,0-5.4815-2.3359h-.8408v15.8262h1.2969a6.72,6.72,0,0,0,5.2178-1.9454,8.06,8.06,0,0,0,1.7851-5.6435A8.8057,8.8057,0,0,0,265.221,174.9424Z" style="fill: #4e4e4e"/>
      <path id="type_CompoundPathItem_12" data-name="type &lt;CompoundPathItem&gt;" d="M293.5725,191.708a21.3431,21.3431,0,0,1-2.1387,1.2012,11.1784,11.1784,0,0,1-2.0752.7774,7.28,7.28,0,0,1-1.7861.26,6.8243,6.8243,0,0,1-5.5137-2.3027,14.4758,14.4758,0,0,1-2.8526-5.8691,37.8386,37.8386,0,0,1-1.0693-7.6543q-.1611-4.02-.1611-7.7832,0-3.6313.2256-7.3291a30.3624,30.3624,0,0,1,1.1015-6.6817,12.6868,12.6868,0,0,1,2.53-4.8642,5.77,5.77,0,0,1,4.5723-1.88,6.6019,6.6019,0,0,1,5.0283,2.1064,10.69,10.69,0,0,1,2.56,5.8057q.1318,1.04.2266,2.789.1,1.752.13,3.795c.0205,1.3613.0459,2.7353.0664,4.1181q.0308,2.0772.0332,3.6963H283.1633c.084,1.7744.1094,3.6006.0664,5.4824a34.5339,34.5339,0,0,0,.3222,5.61,20.3809,20.3809,0,0,0,.5518,2.6269,7.82,7.82,0,0,0,.9717,2.2051,4.7444,4.7444,0,0,0,1.5254,1.4912,4.1611,4.1611,0,0,0,2.2051.5528q2.4624,0,4.67-2.5957l1.9463,2.8545A8.2556,8.2556,0,0,1,293.5725,191.708Zm-4.2481-24.0947q0-2.0742.0977-4.4765a34.2,34.2,0,0,0-.0977-4.5391,11.7781,11.7781,0,0,0-.874-3.6328,2.4016,2.4016,0,0,0-2.3672-1.5567,1.5043,1.5043,0,0,0-1.1045.4541,3.5223,3.5223,0,0,0-.7441,1.167,8.82,8.82,0,0,0-.4864,1.6856,14.4945,14.4945,0,0,0-.26,1.9472,43.3063,43.3063,0,0,0-.295,4.6377c-.0175,1.6651-.0537,3.254-.0966,4.7666h6.2275Z" style="fill: #4e4e4e"/>
      <path id="type_CompoundPathItem_13" data-name="type &lt;CompoundPathItem&gt;" d="M315.8947,194.4649l-2.0127-8.5615q-.7147-3.3077-1.5888-6.0323a24.1507,24.1507,0,0,0-1.5909-4.0205,9.6492,9.6492,0,0,0-1.458-1.9785,3.5935,3.5935,0,0,0-2.3017-.8769V193.168h-5.06V150.3594h3.9551a20.9271,20.9271,0,0,1,3.2119.1953,8.6121,8.6121,0,0,1,2.3018.7129,9.6118,9.6118,0,0,1,4.4433,4.02,12.48,12.48,0,0,1,1.6553,6.4864,12.6454,12.6454,0,0,1-1.1035,5.61,10.8346,10.8346,0,0,1-3.5684,3.9893,12.6888,12.6888,0,0,1,3.6348,5.06q.5829,1.4927,1.2636,3.794.6827,2.3027,1.2,4.3779l1.9463,8.626Zm-3.5058-32.1709a9.2124,9.2124,0,0,0-1.2969-5.416,5.163,5.163,0,0,0-4.2139-1.9131V169.169h.583a4.1091,4.1091,0,0,0,3.6641-1.7842,9.0848,9.0848,0,0,0,1.2012-5.0908Z" style="fill: #4e4e4e"/>
      <path id="type_CompoundPathItem_14" data-name="type &lt;CompoundPathItem&gt;" d="M334.1184,154.834v38.334h-4.9952V154.9h-6.7441v-4.54h18.42v4.4746Z" style="fill: #4e4e4e"/>
      <path id="type_CompoundPathItem_15" data-name="type &lt;CompoundPathItem&gt;" d="M357.8643,155.4825a9.69,9.69,0,0,0-2.0419-1.0371,6.61,6.61,0,0,0-1.98-.26,4.17,4.17,0,0,0-4.3457,4.4121,9.9589,9.9589,0,0,0,.4863,2.8867,27.4056,27.4056,0,0,0,1.1992,3.1768q.7149,1.5907,1.4941,3.0488t1.2969,2.4971q1.0358,2.0771,1.7822,3.5683c.4971.9942.9161,1.8594,1.2637,2.5938q.5185,1.1029.878,1.9785c.2353.583.4423,1.1572.6152,1.7178a14.7926,14.7926,0,0,1,.5176,3.8271,10.3236,10.3236,0,0,1-2.43,7.1358,8.0173,8.0173,0,0,1-6.2617,2.7236,8.5159,8.5159,0,0,1-3.3067-.8115,26.7653,26.7653,0,0,1-3.3721-1.7178l1.2305-4.2168c.7363.4766,1.502.9639,2.3047,1.46a4.757,4.757,0,0,0,2.56.7451,4.4287,4.4287,0,0,0,4.4766-4.4746q0-2.918-2.4639-7.5244l-2.208-4.2168a56.9886,56.9886,0,0,1-4.3447-9.8584c-.1279-.5616-.249-1.1348-.3584-1.7178a10.2218,10.2218,0,0,1-.1592-1.8486,11.3558,11.3558,0,0,1,.6485-3.9239,10.3622,10.3622,0,0,1,1.749-3.1152,7.484,7.484,0,0,1,2.66-2.041,8.1449,8.1449,0,0,1,3.44-.7139,11.2829,11.2829,0,0,1,3.08.55,9.2153,9.2153,0,0,1,3.1455,1.59Z" style="fill: #4e4e4e"/>
      <path id="type_CompoundPathItem_16" data-name="type &lt;CompoundPathItem&gt;" d="M383.8808,184.2178a13.9181,13.9181,0,0,1-5.51,7.1348,15.2106,15.2106,0,0,1-1.624.875,8.0358,8.0358,0,0,1-1.7188.5517,17.8386,17.8386,0,0,1-2.1084.2911q-1.1659.0966-2.8535.0976h-4.9287V150.3594h4.9951a22.93,22.93,0,0,1,4.7031.39,10.8093,10.8093,0,0,1,3.208,1.2314,13.848,13.848,0,0,1,5.7412,7.0059q1.9131,4.7343,1.9142,12.582A36.4023,36.4023,0,0,1,383.8808,184.2178ZM380.4453,171.44a49.0369,49.0369,0,0,0-.4883-7.46,16.2545,16.2545,0,0,0-1.5556-5.123,6.7786,6.7786,0,0,0-2.7881-2.92,8.875,8.875,0,0,0-4.1836-.9073h-1.2969v33.5332h1.168q5.3144,0,7.2627-4.539a18.0933,18.0933,0,0,0,1.4268-5.0928q.1947-1.4575.292-3.2754.0951-1.8163.0966-4.2158Z" style="fill: #4e4e4e"/>
      <path id="type_CompoundPathItem_17" data-name="type &lt;CompoundPathItem&gt;" d="M412.7471,180.8125a26.5421,26.5421,0,0,1-2.3682,6.94,13.0132,13.0132,0,0,1-3.6016,4.4424,7.4033,7.4033,0,0,1-4.539,1.5566,7.5071,7.5071,0,0,1-4.6065-1.5566,13.059,13.059,0,0,1-3.5975-4.4112,25.7112,25.7112,0,0,1-2.3683-6.94,44.8679,44.8679,0,0,1-.8437-9.0811,44.397,44.397,0,0,1,.8437-9.0468,26.2913,26.2913,0,0,1,2.3683-6.9405,12.9955,12.9955,0,0,1,3.5975-4.4433,7.5062,7.5062,0,0,1,4.6065-1.5557,7.4024,7.4024,0,0,1,4.539,1.5557,13.0161,13.0161,0,0,1,3.6016,4.4433,26.5421,26.5421,0,0,1,2.3682,6.9405,49.05,49.05,0,0,1,0,18.0966Zm-4.4141-9.05a41.5448,41.5448,0,0,0-1.5557-12.7109q-1.557-4.6728-4.539-4.6709a3.5889,3.5889,0,0,0-2.6934,1.2,9.4837,9.4837,0,0,0-1.9131,3.4375,26.6279,26.6279,0,0,0-1.167,5.4805,61.5394,61.5394,0,0,0-.3885,7.2636q0,8.111,1.5555,12.7461,1.5571,4.6392,4.6065,4.6377,2.981,0,4.5058-4.6689a42.3776,42.3776,0,0,0,1.5274-12.7149Zm-5.3837-22.7646h-4.083l3.954-8.3692h6.6816Z" style="fill: #4e4e4e"/>
      <path id="type_CompoundPathItem_18" data-name="type &lt;CompoundPathItem&gt;" d="M427.7666,154.834v38.334h-4.9951V154.9h-6.7451v-4.54h18.4209v4.4746Z" style="fill: #4e4e4e"/>
      <path id="type_CompoundPathItem_19" data-name="type &lt;CompoundPathItem&gt;" d="M451.2821,154.834v38.334H446.287V154.9h-6.7441v-4.54h18.4209v4.4746Z" style="fill: #4e4e4e"/>
      <path id="type_CompoundPathItem_20" data-name="type &lt;CompoundPathItem&gt;" d="M465.2225,193.168V150.3594h5.0616v42.7442Z" style="fill: #4e4e4e"/>
      <path id="type_CompoundPathItem_21" data-name="type &lt;CompoundPathItem&gt;" d="M492.2733,194.4649l-2.0127-8.5615q-.7134-3.3077-1.5888-6.0323a24.1889,24.1889,0,0,0-1.5889-4.0205,9.688,9.688,0,0,0-1.46-1.9785,3.5866,3.5866,0,0,0-2.3017-.8769V193.168h-5.0586V150.3594h3.9541a20.9335,20.9335,0,0,1,3.2129.1953,8.6054,8.6054,0,0,1,2.3008.7129,9.5932,9.5932,0,0,1,4.4433,4.02,12.462,12.462,0,0,1,1.6563,6.4864,12.631,12.631,0,0,1-1.1045,5.61,10.8322,10.8322,0,0,1-3.5674,3.9893,12.6985,12.6985,0,0,1,3.6348,5.06q.5829,1.4927,1.2636,3.794.6826,2.3027,1.1992,4.3779l1.9463,8.626Zm-3.5049-32.1709a9.22,9.22,0,0,0-1.2968-5.416,5.1658,5.1658,0,0,0-4.2139-1.9131V169.169h.582a4.1109,4.1109,0,0,0,3.6651-1.7842,9.0935,9.0935,0,0,0,1.2-5.0908Z" style="fill: #4e4e4e"/>
      <path id="type_CompoundPathItem_22" data-name="type &lt;CompoundPathItem&gt;" d="M100.2038,216.9141a8.874,8.874,0,0,1-.5391,3.2061,6.8805,6.8805,0,0,1-1.4267,2.3164,5.9441,5.9441,0,0,1-2.0567,1.4062,6.2518,6.2518,0,0,1-2.4277.4834H89.8981v11.7119H87.3425V209.7969h6.1894a8.6593,8.6593,0,0,1,2.334.333,5.59,5.59,0,0,1,2.15,1.169,6.1987,6.1987,0,0,1,1.5752,2.205A8.4007,8.4007,0,0,1,100.2038,216.9141Zm-2.5576.0176a6.713,6.713,0,0,0-.334-2.2334,4.021,4.021,0,0,0-.9278-1.5322,3.7111,3.7111,0,0,0-1.3525-.8692,4.8023,4.8023,0,0,0-1.6484-.2754H89.8981v10.08H93.42a4.0125,4.0125,0,0,0,2.9834-1.2734A5.39,5.39,0,0,0,97.6462,216.9317Z" style="fill: #4e4e4e"/>
      <path id="type_CompoundPathItem_23" data-name="type &lt;CompoundPathItem&gt;" d="M107.5407,218.1729A3.371,3.371,0,0,1,109.987,217.1a1.9955,1.9955,0,0,1,.4443.0362l-.0732,2.52a2.7326,2.7326,0,0,0-.2774-.0557,2.2358,2.2358,0,0,0-.3164-.0195,2.4458,2.4458,0,0,0-1.6494.6318,5.004,5.004,0,0,0-1.2031,1.63,9.1894,9.1894,0,0,0-.7246,2.28,13.8,13.8,0,0,0-.2393,2.5381v9.3769h-2.4463v-13.751c0-.3955-.0078-.82-.0195-1.2783s-.0234-.9013-.0361-1.333c-.0137-.4336-.0254-.8281-.0371-1.1875-.0127-.3574-.0323-.6347-.0567-.834h2.3721q.0747.706.1113,1.7608.0366,1.0577.0381,2.2441h.0742A6.9477,6.9477,0,0,1,107.5407,218.1729Z" style="fill: #4e4e4e"/>
      <path id="type_CompoundPathItem_24" data-name="type &lt;CompoundPathItem&gt;" d="M120.9958,236.0381c-.0235-.1982-.043-.4443-.0557-.7422-.0117-.2939-.0244-.61-.0351-.9433-.0147-.334-.02-.6553-.02-.9639v-.7978H120.81q-.9258,3.93-4.4472,3.9287a4.3336,4.3336,0,0,1-1.5567-.2959,3.7692,3.7692,0,0,1-1.4072-.9629,5.2371,5.2371,0,0,1-1.0381-1.6865,6.6185,6.6185,0,0,1-.4072-2.4659,6.4182,6.4182,0,0,1,.7041-3.2236,5.5748,5.5748,0,0,1,1.7773-1.9277,6.4022,6.4022,0,0,1,2.3545-.9444,13,13,0,0,1,2.4278-.2412h1.4453v-.9648a5.62,5.62,0,0,0-.8907-3.52,2.9227,2.9227,0,0,0-2.4082-1.1114,3.57,3.57,0,0,0-1.9267.5557,5.5366,5.5366,0,0,0-1.52,1.4082l-1.2969-1.5195a5.685,5.685,0,0,1,2.2256-1.8906,6.21,6.21,0,0,1,2.74-.667,4.5265,4.5265,0,0,1,4.1152,1.8906,10.2332,10.2332,0,0,1,1.2227,5.5224V232.11c0,.2461.0059.5557.0186.9258.0107.3711.0244.747.0371,1.1308s.03.74.0556,1.0752.0479.5977.0743.7959Zm-.295-9.34h-1.4833a9.7665,9.7665,0,0,0-1.7784.166,4.1836,4.1836,0,0,0-1.5771.63,3.5808,3.5808,0,0,0-1.1289,1.2793,4.388,4.388,0,0,0-.4463,2.1133,3.8169,3.8169,0,0,0,.8535,2.7793,2.5873,2.5873,0,0,0,3.6133.2226,4.4619,4.4619,0,0,0,1.1484-1.5928,8.6771,8.6771,0,0,0,.6133-2.1142,14.1091,14.1091,0,0,0,.1855-2.2237Z" style="fill: #4e4e4e"/>
      <path id="type_CompoundPathItem_25" data-name="type &lt;CompoundPathItem&gt;" d="M136.0426,236.0381l-3.67-7.709-3.6318,7.709h-2.7041l4.8916-9.6728-4.4844-8.711h2.7432l3.2246,6.9317,3.1865-6.9317h2.67l-4.4131,8.6729,4.9688,9.7109Z" style="fill: #4e4e4e"/>
      <path id="type_CompoundPathItem_26" data-name="type &lt;CompoundPathItem&gt;" d="M145.1247,212.0215a1.7689,1.7689,0,0,1-.4834,1.2793,1.5393,1.5393,0,0,1-1.1485.499,1.5223,1.5223,0,0,1-1.167-.499,1.9706,1.9706,0,0,1,0-2.54,1.5746,1.5746,0,0,1,2.336,0A1.8337,1.8337,0,0,1,145.1247,212.0215Zm-2.8555,24.0166V217.6543h2.4473v18.3838Z" style="fill: #4e4e4e"/>
      <path id="type_CompoundPathItem_27" data-name="type &lt;CompoundPathItem&gt;" d="M157.4274,220.8428a3.9787,3.9787,0,0,0-1.24-1.3164,3.2634,3.2634,0,0,0-1.835-.5,2.4642,2.4642,0,0,0-1.9463.8711,3.3387,3.3387,0,0,0-.76,2.2793,2.7548,2.7548,0,0,0,.7421,2.1494,7.0117,7.0117,0,0,0,2.2227,1.2236,11.6866,11.6866,0,0,1,1.4824.7227,5.4476,5.4476,0,0,1,1.3164,1.0566,5.2459,5.2459,0,0,1,.9453,1.501,5.35,5.35,0,0,1,.3692,2.0938,5.7757,5.7757,0,0,1-1.461,4.206,5.0789,5.0789,0,0,1-3.8,1.501,5.7812,5.7812,0,0,1-2.8554-.7217,6.41,6.41,0,0,1-2.1494-1.9453l1.4824-1.5947a5.71,5.71,0,0,0,1.5019,1.5752,3.4835,3.4835,0,0,0,2.0567.6113,2.6077,2.6077,0,0,0,2.0937-.9453,3.75,3.75,0,0,0,.7979-2.502,3.4112,3.4112,0,0,0-.2979-1.5009,3.1062,3.1062,0,0,0-.7783-1.02,5.1374,5.1374,0,0,0-1.0928-.7031c-.4072-.1982-.8349-.3838-1.2773-.5557a9.0007,9.0007,0,0,1-1.3555-.6308,4.52,4.52,0,0,1-2.001-2.39,5.7657,5.7657,0,0,1-.3144-2.0215,5.6233,5.6233,0,0,1,.3906-2.1132,4.749,4.749,0,0,1,1.0928-1.6485,5.2709,5.2709,0,0,1,1.6123-1.0742,4.9722,4.9722,0,0,1,1.9824-.39,5.5631,5.5631,0,0,1,2.6865.6123,5.4329,5.4329,0,0,1,1.835,1.5742Z" style="fill: #4e4e4e"/>
      <path id="type_CompoundPathItem_28" data-name="type &lt;CompoundPathItem&gt;" d="M176.1462,209.6856a3.4479,3.4479,0,0,0-1.0762-.1846,2.0322,2.0322,0,0,0-1.2412.37,2.6448,2.6448,0,0,0-.7969.9639,4.449,4.449,0,0,0-.4082,1.3525,11.0263,11.0263,0,0,0-.1113,1.5762v3.8906h3.1142v2.002h-3.1142v16.3818h-2.4473V219.6563h-2.4814v-2.002h2.4814v-3.8906a8.2425,8.2425,0,0,1,1.1494-4.5771,3.9838,3.9838,0,0,1,3.5957-1.7618,4.7534,4.7534,0,0,1,1.5215.2237Z" style="fill: #4e4e4e"/>
      <path id="type_CompoundPathItem_29" data-name="type &lt;CompoundPathItem&gt;" d="M180.9626,217.6543v11.8623a15.8125,15.8125,0,0,0,.0937,1.7217,5.2644,5.2644,0,0,0,.4072,1.5947,3.1568,3.1568,0,0,0,.87,1.1856,2.2963,2.2963,0,0,0,1.52.4639,2.8371,2.8371,0,0,0,1.6494-.501,4.1521,4.1521,0,0,0,1.2236-1.3721,7.7225,7.7225,0,0,0,.7774-2,9.819,9.819,0,0,0,.2773-2.3535V217.6543h2.4473v13.751c0,.3945.0049.8223.0175,1.2793s.0235.9024.0372,1.334.0253.835.038,1.2041c.0118.3711.03.6436.0547.8154h-2.3711q-.0761-.703-.1113-1.7041-.04-1.0018-.0381-1.8906h-.0742a6.6558,6.6558,0,0,1-1.7041,3.02,4.0629,4.0629,0,0,1-2.9658,1.167,3.8375,3.8375,0,0,1-3.78-2.2783,7.5881,7.5881,0,0,1-.6475-2.28,19.2481,19.2481,0,0,1-.1679-2.5557V217.6543Zm2.4091-5.6328a1.6248,1.6248,0,0,1-.4628,1.2031,1.4888,1.4888,0,0,1-1.0938.4649,1.4516,1.4516,0,0,1-1.13-.4649,1.7,1.7,0,0,1-.4277-1.2031,1.7251,1.7251,0,0,1,.4277-1.1865,1.4352,1.4352,0,0,1,1.13-.4814,1.473,1.473,0,0,1,1.0938.4814A1.6488,1.6488,0,0,1,183.3717,212.0215Zm5.3,0a1.66,1.66,0,0,1-.4444,1.2031,1.4692,1.4692,0,0,1-1.1113.4649,1.4842,1.4842,0,0,1-1.0938-.4649,1.6226,1.6226,0,0,1-.4648-1.2031,1.6468,1.6468,0,0,1,.4648-1.1865,1.4684,1.4684,0,0,1,1.0938-.4814,1.453,1.453,0,0,1,1.1113.4814A1.684,1.684,0,0,1,188.6716,212.0215Z" style="fill: #4e4e4e"/>
      <path id="type_CompoundPathItem_30" data-name="type &lt;CompoundPathItem&gt;" d="M200.2721,218.1729a3.3692,3.3692,0,0,1,2.4454-1.0733,1.984,1.984,0,0,1,.4443.0362l-.0733,2.52a2.6776,2.6776,0,0,0-.2773-.0557,2.2307,2.2307,0,0,0-.3154-.0195,2.44,2.44,0,0,0-1.6494.6318,4.9921,4.9921,0,0,0-1.2041,1.63,9.1936,9.1936,0,0,0-.7247,2.28,13.8083,13.8083,0,0,0-.2392,2.5381v9.3769h-2.4453v-13.751c0-.3955-.0088-.82-.02-1.2783s-.0235-.9013-.0362-1.333c-.0136-.4336-.0254-.8281-.0381-1.1875-.0117-.3574-.0312-.6347-.0546-.834h2.372q.0747.706.11,1.7608.0381,1.0577.039,2.2441h.0733A6.9317,6.9317,0,0,1,200.2721,218.1729Z" style="fill: #4e4e4e"/>
      <path id="type_CompoundPathItem_31" data-name="type &lt;CompoundPathItem&gt;" d="M215.8014,212.1319v9.415h7.375V223.77h-7.375v12.2685h-2.5566V209.7969h10.4883v2.335Z" style="fill: #4e4e4e"/>
      <path id="type_CompoundPathItem_32" data-name="type &lt;CompoundPathItem&gt;" d="M234.5925,236.0381c-.0235-.1982-.043-.4443-.0547-.7422-.0127-.2939-.0235-.61-.0362-.9433s-.0195-.6553-.0195-.9639v-.7978h-.0752q-.9228,3.93-4.4463,3.9287a4.32,4.32,0,0,1-1.5556-.2959,3.7823,3.7823,0,0,1-1.4092-.9629,5.2545,5.2545,0,0,1-1.0381-1.6865,6.6368,6.6368,0,0,1-.4072-2.4659,6.4277,6.4277,0,0,1,.7041-3.2236,5.5885,5.5885,0,0,1,1.7793-1.9277,6.3922,6.3922,0,0,1,2.3525-.9444,13.0033,13.0033,0,0,1,2.43-.2412H234.26v-.9648a5.628,5.628,0,0,0-.89-3.52,2.9241,2.9241,0,0,0-2.4082-1.1114,3.5682,3.5682,0,0,0-1.9278.5557,5.5239,5.5239,0,0,0-1.52,1.4082l-1.2968-1.5195a5.6806,5.6806,0,0,1,2.2246-1.8906,6.2147,6.2147,0,0,1,2.7421-.667,4.5252,4.5252,0,0,1,4.1133,1.8906,10.2152,10.2152,0,0,1,1.2237,5.5224V232.11c0,.2461.0048.5557.0175.9258s.0264.747.0371,1.1308c.0127.3828.0313.74.0577,1.0752.0234.334.0468.5977.0732.7959Zm-.294-9.34h-1.4824a9.78,9.78,0,0,0-1.78.166,4.1793,4.1793,0,0,0-1.5762.63,3.5839,3.5839,0,0,0-1.13,1.2793,4.4122,4.4122,0,0,0-.4444,2.1133,3.8252,3.8252,0,0,0,.8516,2.7793,2.5874,2.5874,0,0,0,3.6133.2226,4.4522,4.4522,0,0,0,1.1494-1.5928,8.7216,8.7216,0,0,0,.6133-2.1142,14.2291,14.2291,0,0,0,.1855-2.2237Z" style="fill: #4e4e4e"/>
      <path id="type_CompoundPathItem_33" data-name="type &lt;CompoundPathItem&gt;" d="M248.861,220.8428a3.9787,3.9787,0,0,0-1.24-1.3164,3.2591,3.2591,0,0,0-1.835-.5,2.4642,2.4642,0,0,0-1.9463.8711,3.3436,3.3436,0,0,0-.76,2.2793,2.7581,2.7581,0,0,0,.7421,2.1494,7.023,7.023,0,0,0,2.2227,1.2236,11.6866,11.6866,0,0,1,1.4824.7227,5.43,5.43,0,0,1,1.3164,1.0566,5.2288,5.2288,0,0,1,.9463,1.501,5.3673,5.3673,0,0,1,.37,2.0938,5.7686,5.7686,0,0,1-1.4629,4.206,5.076,5.076,0,0,1-3.8,1.501,5.7867,5.7867,0,0,1-2.8554-.7217,6.41,6.41,0,0,1-2.1494-1.9453l1.4843-1.5947a5.69,5.69,0,0,0,1.5,1.5752,3.4835,3.4835,0,0,0,2.0567.6113,2.6077,2.6077,0,0,0,2.0937-.9453,3.745,3.745,0,0,0,.7979-2.502,3.4112,3.4112,0,0,0-.2979-1.5009,3.1172,3.1172,0,0,0-.7773-1.02,5.17,5.17,0,0,0-1.0938-.7031c-.4072-.1982-.8349-.3838-1.2773-.5557a9.0007,9.0007,0,0,1-1.3555-.6308,4.5131,4.5131,0,0,1-2-2.39,5.7413,5.7413,0,0,1-.3154-2.0215,5.6233,5.6233,0,0,1,.3906-2.1132,4.7629,4.7629,0,0,1,1.0928-1.6485,5.2634,5.2634,0,0,1,1.6133-1.0742,4.9638,4.9638,0,0,1,1.9814-.39,5.5579,5.5579,0,0,1,2.6865.6123,5.4234,5.4234,0,0,1,1.835,1.5742Z" style="fill: #4e4e4e"/>
      <path id="type_CompoundPathItem_34" data-name="type &lt;CompoundPathItem&gt;" d="M252.5685,236.0381v-2.1494l7.6719-14.1221h-7.0791v-2.1123h9.6377v2.0762l-7.6377,14.1953h7.6729v2.1123Z" style="fill: #4e4e4e"/>
      <path id="type_CompoundPathItem_35" data-name="type &lt;CompoundPathItem&gt;" d="M269.6564,212.0215a1.78,1.78,0,0,1-.4814,1.2793,1.5483,1.5483,0,0,1-1.1533.499,1.5175,1.5175,0,0,1-1.1641-.499,1.9671,1.9671,0,0,1,0-2.54,1.4924,1.4924,0,0,1,1.1641-.5186,1.5076,1.5076,0,0,1,1.1708.5186A1.8341,1.8341,0,0,1,269.6564,212.0215Zm-2.8555,24.0166V217.6543h2.4463v18.3838Z" style="fill: #4e4e4e"/>
      <path id="type_CompoundPathItem_36" data-name="type &lt;CompoundPathItem&gt;" d="M276.2863,227.3653a14.2436,14.2436,0,0,0,.2627,2.7988,8.1482,8.1482,0,0,0,.7627,2.2227,4.12,4.12,0,0,0,1.2685,1.4824,3.0335,3.0335,0,0,0,1.8057.539,2.9243,2.9243,0,0,0,2.1592-.8154,5.5933,5.5933,0,0,0,1.2676-1.9658l1.8545,1.0752a7.1552,7.1552,0,0,1-1.9844,2.7988,4.9718,4.9718,0,0,1-3.3535,1.13,5.41,5.41,0,0,1-4.7823-2.5938,12.9327,12.9327,0,0,1-1.7031-7.1533,16.7562,16.7562,0,0,1,.4395-3.9668,10.3168,10.3168,0,0,1,1.2763-3.1123,6.2534,6.2534,0,0,1,2.0332-2.02,5.527,5.527,0,0,1,5.4327-.0185,5.3449,5.3449,0,0,1,1.8271,1.9277,9.069,9.069,0,0,1,1.0166,2.8525,18.5324,18.5324,0,0,1,.3174,3.4844v1.335Zm7.45-2.0371a9.8866,9.8866,0,0,0-.8565-4.4678,2.8241,2.8241,0,0,0-2.6806-1.6856,2.6138,2.6138,0,0,0-1.8067.6485,5.1906,5.1906,0,0,0-1.1914,1.5937,7.834,7.834,0,0,0-.67,2.02,10.3428,10.3428,0,0,0-.2051,1.8916Z" style="fill: #4e4e4e"/>
      <path id="type_CompoundPathItem_37" data-name="type &lt;CompoundPathItem&gt;" d="M300.0451,236.0381v-11.86a16.874,16.874,0,0,0-.0928-1.7227,5.4552,5.4552,0,0,0-.4062-1.5947,3.0862,3.0862,0,0,0-.8907-1.1846,2.309,2.309,0,0,0-1.5009-.4648,2.8218,2.8218,0,0,0-1.6475.501,4.1073,4.1073,0,0,0-1.2246,1.371,7.8354,7.8354,0,0,0-.7783,2.002,9.7622,9.7622,0,0,0-.2783,2.3525v10.6006H290.78v-13.751c0-.3955-.01-.82-.0224-1.2783q-.0162-.6855-.0362-1.333c-.0107-.4336-.0234-.8281-.0351-1.1875-.0127-.3574-.0313-.6347-.0547-.834h2.3711c.0488.4707.085,1.0371.11,1.7061.0254.667.0411,1.2969.0411,1.8887h.0713a6.6479,6.6479,0,0,1,1.7041-3.02,4.0582,4.0582,0,0,1,2.9658-1.1679,3.8435,3.8435,0,0,1,3.7812,2.28,7.634,7.634,0,0,1,.6465,2.2969,18.9382,18.9382,0,0,1,.169,2.5391v11.86Z" style="fill: #4e4e4e"/>
      <path id="type_CompoundPathItem_38" data-name="type &lt;CompoundPathItem&gt;" d="M313.0187,236.3721a5.1035,5.1035,0,0,1-1.2236.1475,2.9156,2.9156,0,0,1-2.7266-1.333,6.8976,6.8976,0,0,1-.7978-3.56V219.6563h-2.4063v-2.002h2.37v-5.0781h2.41v5.0781h3.2607v2.002h-3.2607v11.5283a4.6806,4.6806,0,0,0,.4805,2.4258,1.6,1.6,0,0,0,1.4472.76,2.9783,2.9783,0,0,0,.7061-.0909,4.09,4.09,0,0,0,.6269-.207l.1123,1.9658A5.8059,5.8059,0,0,1,313.0187,236.3721Z" style="fill: #4e4e4e"/>
      <path id="type_CompoundPathItem_39" data-name="type &lt;CompoundPathItem&gt;" d="M326.5793,236.0381v-11.86a16.3374,16.3374,0,0,0-.09-1.7227,5.811,5.811,0,0,0-.3886-1.5947,2.8988,2.8988,0,0,0-.8721-1.1846,2.31,2.31,0,0,0-1.502-.4648,2.8233,2.8233,0,0,0-1.6465.501,4.2942,4.2942,0,0,0-1.2431,1.371,7.2859,7.2859,0,0,0-.7959,2.002,9.7672,9.7672,0,0,0-.2783,2.3525v10.6006h-2.4483V208.0186h2.4483v13.12h.0732a6.2724,6.2724,0,0,1,1.6611-2.9277,4.13,4.13,0,0,1,6.7188,1.1308,7.6623,7.6623,0,0,1,.6445,2.2969,18.9217,18.9217,0,0,1,.169,2.5391v11.86Z" style="fill: #4e4e4e"/>
      <path id="type_CompoundPathItem_40" data-name="type &lt;CompoundPathItem&gt;" d="M335.9611,227.3653a13.9634,13.9634,0,0,0,.2588,2.7988,8.2813,8.2813,0,0,0,.7637,2.2227,4.1334,4.1334,0,0,0,1.2666,1.4824,3.0487,3.0487,0,0,0,1.8066.539,2.93,2.93,0,0,0,2.16-.8154,5.6191,5.6191,0,0,0,1.2666-1.9658l1.8515,1.0752a7.09,7.09,0,0,1-1.9814,2.7988,4.9657,4.9657,0,0,1-3.3545,1.13,5.4039,5.4039,0,0,1-4.78-2.5938,12.9142,12.9142,0,0,1-1.708-7.1533,16.6979,16.6979,0,0,1,.4473-3.9668,10.1911,10.1911,0,0,1,1.2734-3.1123,6.2291,6.2291,0,0,1,2.0313-2.02,5.5268,5.5268,0,0,1,5.4326-.0185,5.3878,5.3878,0,0,1,1.831,1.9277,9.2884,9.2884,0,0,1,1.0137,2.8525,18.2189,18.2189,0,0,1,.3145,3.4844v1.335Zm7.45-2.0371a9.994,9.994,0,0,0-.8564-4.4678,2.8292,2.8292,0,0,0-2.6856-1.6856,2.613,2.613,0,0,0-1.8037.6485,5.1809,5.1809,0,0,0-1.1943,1.5937,7.9072,7.9072,0,0,0-.67,2.02,10.16,10.16,0,0,0-.2041,1.8916Z" style="fill: #4e4e4e"/>
      <path id="type_CompoundPathItem_41" data-name="type &lt;CompoundPathItem&gt;" d="M354.4894,218.1729a3.3716,3.3716,0,0,1,2.4473-1.0733,2.0119,2.0119,0,0,1,.4453.0362l-.0742,2.52a2.6934,2.6934,0,0,0-.2783-.0557,2.2119,2.2119,0,0,0-.3174-.0195,2.4421,2.4421,0,0,0-1.6465.6318,4.9993,4.9993,0,0,0-1.2061,1.63,9.2734,9.2734,0,0,0-.7236,2.28,13.8871,13.8871,0,0,0-.2392,2.5381v9.3769H350.45v-13.751c0-.3955-.0049-.82-.0176-1.2783s-.0235-.9013-.0361-1.333c-.0157-.4336-.0274-.8281-.0391-1.1875-.0117-.3574-.0332-.6347-.0576-.834h2.374q.0762.706.1113,1.7608.0353,1.0577.0362,2.2441h.0752A6.9893,6.9893,0,0,1,354.4894,218.1729Z" style="fill: #4e4e4e"/>
      <path id="type_CompoundPathItem_42" data-name="type &lt;CompoundPathItem&gt;" d="M367.9425,236.0381c-.0244-.1982-.0429-.4443-.0556-.7422-.0137-.2939-.0254-.61-.0381-.9433s-.0186-.6553-.0186-.9639v-.7978h-.0712q-.9288,3.93-4.45,3.9287a4.3284,4.3284,0,0,1-1.5557-.2959,3.7982,3.7982,0,0,1-1.4092-.9629,5.2545,5.2545,0,0,1-1.0381-1.6865,6.6583,6.6583,0,0,1-.4062-2.4659,6.4186,6.4186,0,0,1,.7031-3.2236,5.5789,5.5789,0,0,1,1.7793-1.9277,6.3976,6.3976,0,0,1,2.3535-.9444,12.9906,12.9906,0,0,1,2.4268-.2412h1.4453v-.9648a5.6417,5.6417,0,0,0-.8867-3.52,2.9267,2.9267,0,0,0-2.41-1.1114,3.5657,3.5657,0,0,0-1.9277.5557,5.4785,5.4785,0,0,0-1.52,1.4082l-1.2968-1.5195a5.69,5.69,0,0,1,2.2226-1.8906,6.2234,6.2234,0,0,1,2.7442-.667,4.5287,4.5287,0,0,1,4.1152,1.8906,10.2437,10.2437,0,0,1,1.2207,5.5224V232.11c0,.2461.0068.5557.0176.9258.0127.3711.0254.747.0361,1.1308.0156.3828.0332.74.0586,1.0752.0234.334.0479.5977.0713.7959Zm-.2958-9.34h-1.4844a9.8168,9.8168,0,0,0-1.7793.166,4.2018,4.2018,0,0,0-1.5742.63,3.6261,3.6261,0,0,0-1.1319,1.2793,4.425,4.425,0,0,0-.4424,2.1133,3.8121,3.8121,0,0,0,.8536,2.7793,2.586,2.586,0,0,0,3.6123.2226,4.54,4.54,0,0,0,1.15-1.5928,8.5906,8.5906,0,0,0,.6084-2.1142,13.8945,13.8945,0,0,0,.1875-2.2237Z" style="fill: #4e4e4e"/>
      <path id="type_CompoundPathItem_43" data-name="type &lt;CompoundPathItem&gt;" d="M387.883,226.8838a19.32,19.32,0,0,1-.3711,3.93,10.4948,10.4948,0,0,1-1.1123,3.0752,5.9284,5.9284,0,0,1-1.8164,2.02,4.4226,4.4226,0,0,1-2.5215.7217,3.9752,3.9752,0,0,1-2.7959-1.0371,5.513,5.513,0,0,1-1.5781-2.7061h-.0352v12.0459h-2.4473V217.6543h2.3731v3.3h.0742a6.2394,6.2394,0,0,1,1.4834-2.7988,3.8415,3.8415,0,0,1,2.9258-1.0937,4.295,4.295,0,0,1,2.4668.7422,6.0119,6.0119,0,0,1,1.833,2.038,10.8278,10.8278,0,0,1,1.1328,3.0938A18.7332,18.7332,0,0,1,387.883,226.8838Zm-2.5215-.0732a18.6912,18.6912,0,0,0-.2227-2.9854,9.314,9.314,0,0,0-.7031-2.4277,4.6054,4.6054,0,0,0-1.2041-1.6309,2.8073,2.8073,0,0,0-3.4482,0,4.7619,4.7619,0,0,0-1.2237,1.6309,9.2974,9.2974,0,0,0-.7412,2.4277,17.47,17.47,0,0,0-.24,2.9854,17.99,17.99,0,0,0,.24,3.0381,9.0121,9.0121,0,0,0,.7412,2.4287,4.6429,4.6429,0,0,0,1.2432,1.6113,2.7716,2.7716,0,0,0,3.4287,0,4.6111,4.6111,0,0,0,1.2041-1.6113,9.0383,9.0383,0,0,0,.7031-2.4287A19.2482,19.2482,0,0,0,385.3615,226.8106Z" style="fill: #4e4e4e"/>
      <path id="type_CompoundPathItem_44" data-name="type &lt;CompoundPathItem&gt;" d="M395.3293,212.0215a1.7775,1.7775,0,0,1-.4785,1.2793,1.5461,1.5461,0,0,1-1.1495.499,1.5227,1.5227,0,0,1-1.1679-.499,1.97,1.97,0,0,1,0-2.54,1.5734,1.5734,0,0,1,2.3349,0A1.8322,1.8322,0,0,1,395.3293,212.0215Zm-2.8526,24.0166V217.6543h2.4453v18.3838Z" style="fill: #4e4e4e"/>
      <path id="type_CompoundPathItem_45" data-name="type &lt;CompoundPathItem&gt;" d="M401.966,227.3653a14.03,14.03,0,0,0,.2588,2.7988,8.3514,8.3514,0,0,0,.7627,2.2227,4.1267,4.1267,0,0,0,1.2675,1.4824,3.045,3.045,0,0,0,1.8067.539,2.9294,2.9294,0,0,0,2.16-.8154,5.6036,5.6036,0,0,0,1.2666-1.9658l1.8516,1.0752a7.09,7.09,0,0,1-1.9814,2.7988,4.9721,4.9721,0,0,1-3.3536,1.13,5.4044,5.4044,0,0,1-4.7812-2.5938,12.9151,12.9151,0,0,1-1.7051-7.1533,16.7066,16.7066,0,0,1,.4414-3.9668,10.195,10.195,0,0,1,1.2754-3.1123,6.2534,6.2534,0,0,1,2.0332-2.02,5.5267,5.5267,0,0,1,5.4326-.0185,5.3722,5.3722,0,0,1,1.8282,1.9277,9.0684,9.0684,0,0,1,1.0156,2.8525,18.2191,18.2191,0,0,1,.3144,3.4844v1.335Zm7.4463-2.0371a9.8866,9.8866,0,0,0-.8565-4.4678,2.82,2.82,0,0,0-2.6806-1.6856,2.6155,2.6155,0,0,0-1.8067.6485,5.1748,5.1748,0,0,0-1.1914,1.5937,7.83,7.83,0,0,0-.67,2.02,10.0851,10.0851,0,0,0-.2051,1.8916Z" style="fill: #4e4e4e"/>
    </g>
    <g id="logoMark">
      <path id="logoMark_CompoundPathItem_" data-name="logoMark &lt;CompoundPathItem&gt;" d="M249.8675,93.523a29.9,29.9,0,0,1-15.6582-4.2437c-7.21-4.4223-11.8711-9.7534-14.667-16.7783a31.9663,31.9663,0,0,1-1.292-19.8725c1.7216-4.5987,3.4257-9.1187,7.0429-12.88A17.1613,17.1613,0,0,1,239.22,34.1958c.376.0347.69.0538,1.0029.0743a11.1784,11.1784,0,0,1,6.7627,2.2876l.4844.49c7.5488,10.32,15.9307,13.9355,22.666,16.84,7.7617,3.3462,14.4629,6.2373,10.7832,18.15C277.0051,84.6885,264.2366,93.523,249.8675,93.523Zm-11.9141-54.74a12.6122,12.6122,0,0,0-9.32,4.1778c-2.958,3.0757-4.4229,6.96-5.9746,11.0742a27.27,27.27,0,0,0,1.1865,16.7529c2.4072,6.0484,6.4707,10.67,12.7861,14.54a25.2662,25.2662,0,0,0,13.2364,3.562c12.3564,0,23.3066-7.4922,26.624-18.2212,2.4551-7.937-.4434-9.1856-8.1895-12.5269-6.8066-2.936-16.1123-6.9477-24.3515-18.0595a6.6061,6.6061,0,0,0-4.0157-1.1885c-.3623-.0225-.7275-.0454-1.1-.0811C238.5755,38.7945,238.263,38.7832,237.9534,38.7832Z" style="fill: #e4231e"/>
      <path id="logoMark_CompoundPathItem_2" data-name="logoMark &lt;CompoundPathItem&gt;" d="M252.0872,83.6934a25.5759,25.5759,0,0,1-9.3867-1.834,27.2134,27.2134,0,0,1-12.4512-11.8921c-1.752-3.3252-3.6553-7.75-2.8115-12.4614.8593-4.7959,2.7724-8.2485,6.0127-10.8452a9.1861,9.1861,0,0,1,9.1435-2.7813,9.024,9.024,0,0,1,5.9365,4.6387c2.5293,5.6709,8.1807,7.8882,13.1661,9.8442,4.25,1.668,8.2646,3.2422,9.73,6.8257.9053,2.209.6758,4.7832-.7031,7.8692A21.2905,21.2905,0,0,1,252.0872,83.6934ZM240.2923,48.1778a4.83,4.83,0,0,0-3.4991,1.6953l-.3213.3047c-2.4228,1.894-3.8027,4.4048-4.4726,8.145-.5967,3.3227.9433,6.8169,2.3516,9.4893a22.4759,22.4759,0,0,0,10.1914,9.8,20.8761,20.8761,0,0,0,7.5449,1.4478,16.6777,16.6777,0,0,0,14.5439-8.1519,5.4625,5.4625,0,0,0,.51-3.9643c-.7178-1.7495-3.8369-2.9732-7.1367-4.2686-5.5254-2.167-12.4024-4.8652-15.7041-12.2671a4.5893,4.5893,0,0,0-2.9366-2.0629A3.6458,3.6458,0,0,0,240.2923,48.1778Z" style="fill: #e4231e"/>
      <path id="logoMark_CompoundPathItem_3" data-name="logoMark &lt;CompoundPathItem&gt;" d="M249.9036,103.8731a42.9634,42.9634,0,0,1-42.7217-41.8945,43.0028,43.0028,0,0,1,1.6709-12.7466c3.25-12.8159,14.2188-26.7481,30.3008-25.8252.5078.0425.98.0512,1.4668.0615,2.1631.0488,5.124.1152,7.042,2.4419,7.9267,9.6118,17.2314,14.6558,25.4394,19.1064,12.96,7.0284,24.1533,13.0967,16.2783,33.8335-1.5478,4.063-6.7988,12.0181-14.9375,17.2906-7.6582,4.9648-15.6259,7.5634-23.6767,7.7246ZM237.6809,27.9956c-12.2549,0-21.5283,11.2935-24.3564,22.4493a38.1425,38.1425,0,0,0,36.5791,48.7959l.77-.0079c7.1738-.143,14.3252-2.4921,21.248-6.98,7.1543-4.6348,11.8506-11.6914,13.127-15.0484,6.4355-16.9492-.8779-20.915-14.1563-28.1147-8.1552-4.4214-18.3027-9.9243-26.8056-20.2324-.5674-.69-2.0938-.7242-3.5694-.7559-.5908-.0137-1.165-.0288-1.7011-.0752C238.4788,28.0074,238.0774,27.9956,237.6809,27.9956Z" style="fill: #e4231e"/>
      <path id="logoMark_CompoundPathItem_4" data-name="logoMark &lt;CompoundPathItem&gt;" d="M249.8723,114.6079a53.0108,53.0108,0,0,1-52.7148-51.6958,52.2873,52.2873,0,0,1,10.3516-32.4414,53.9226,53.9226,0,0,1,4.3525-5.1455c8.6367-7.8471,16.7119-11.7729,25.5264-12.4633.7343-.0157,1.3545-.0621,1.9882-.1089.8428-.0616,1.709-.1231,2.5557-.1231a8.378,8.378,0,0,1,6.2451,2.2c10.4307,10.6465,20.7285,16.5581,29.8135,21.773,14.2432,8.1772,25.49,14.6367,23.9121,34.47a42.5863,42.5863,0,0,1-3.042,10.419,52.8585,52.8585,0,0,1-47.9248,33.1064Zm-7.94-97.3457c-.7344,0-1.4844.0577-2.2158.1124-.7305.0527-1.4443.1035-2.1162.1127-7.586.6-14.7871,4.1475-22.5108,11.1568a49.583,49.583,0,0,0-3.8584,4.5884,47.6588,47.6588,0,0,0-9.4394,29.5893,48.3516,48.3516,0,0,0,48.081,47.1538l.9717-.0112A48.198,48.198,0,0,0,294.5823,79.71a38.1577,38.1577,0,0,0,2.7246-9.1851c1.3242-16.729-7.3135-21.6884-21.624-29.9043-8.8828-5.0986-19.9346-11.4453-30.8145-22.55A3.951,3.951,0,0,0,241.9319,17.2622Z" style="fill: #e4231e"/>
      <path id="logoMark_CompoundPathItem_5" data-name="logoMark &lt;CompoundPathItem&gt;" d="M249.57,125.2344A62.4794,62.4794,0,0,1,211.7044,13.0816a62.9185,62.9185,0,0,1,8.0869-5.2388,60.6489,60.6489,0,0,1,18.2392-5.7007,41.7062,41.7062,0,0,1,9.7666.3389l.7979.1191.5527.5918c12.4678,13.3516,25.5069,20.399,35.9864,26.062,14.6943,7.9434,26.3037,14.2188,26.916,32.2437a57.68,57.68,0,0,1-.6094,10.1694,62.2072,62.2072,0,0,1-60.6074,53.5557ZM241.4231,6.6372q-1.4779,0-2.9424.1153a55.81,55.81,0,0,0-16.59,5.2178A57.8506,57.8506,0,0,0,249.57,120.6l1.1729-.0117a57.59,57.59,0,0,0,56.1142-49.5747,53.0448,53.0448,0,0,0,.5606-9.3579c-.5215-15.3721-10.0567-20.5259-24.4883-28.3271C272.3118,27.59,259.136,20.4673,246.3255,6.9546A38.2542,38.2542,0,0,0,241.4231,6.6372Z" style="fill: #e4231e"/>
    </g>
  </g>
</svg>
